Release 14.7 - WebTalk (P.20131013)
Copyright (c) 1995-2010 Xilinx, Inc.  All rights reserved.

Project Information
--------------------
ProjectID=7f0c7291493242dc80d5da7d63ea57be
ProjectIteration=4

WebTalk Summary
----------------
INFO:WebTalk:1 - WebTalk is enabled because you are using a WebPACK license.

INFO:WebTalk:9 - WebTalk Install setting is OFF.
INFO:WebTalk:7 - WebTalk User setting is OFF.

INFO:WebTalk:5 - D:/Starterlkit_SDRAM/implementation/usage_statistics_webtalk.html WebTalk report has not been sent to Xilinx.  Please check your network and proxy settings.  For additional details about this file, please refer to the WebTalk help file at D:/Xilinx/14.7/ISE_DS/ISE/data/reports/webtalk_introduction.html
